…
happiness.report <- read_csv("World_Happiness_Report.csv")

2 Preparation

Für die nachfolgenden Tests sind nicht alle Variablen aus dem Datensatz World Happiness Report relevant. Er wird daher auf folgende 5 reduziert.

Tipp: Mit der select Funktion lassen sich Spalten auch gleichzeitig umbenennen. Dies ist in unserem Fall teilweise auch sinnvoll, da die ursprüngliche Spaltenbezeichnung recht lang ausfällt.

happiness <- happiness.report %>% select(Score = Happiness.Score, Life.exp = Health..Life.Expectancy., Freedom, Generosity, Trust = Trust..Government.Corruption.)
happiness

## # A tibble: 155 x 5
##    Score Life.exp Freedom Generosity Trust
##    <dbl>    <dbl>   <dbl>      <dbl> <dbl>
##  1  7.54    0.797   0.635      0.362 0.316
##  2  7.52    0.793   0.626      0.355 0.401
##  3  7.50    0.834   0.627      0.476 0.154
##  4  7.49    0.858   0.620      0.291 0.367
##  5  7.47    0.809   0.618      0.245 0.383
##  6  7.38    0.811   0.585      0.470 0.283
##  7  7.32    0.835   0.611      0.436 0.287
##  8  7.31    0.817   0.614      0.500 0.383
##  9  7.28    0.831   0.613      0.385 0.384
## 10  7.28    0.844   0.602      0.478 0.301
## # ... with 145 more rows
…
