…
5 A brief insight of text mining

I am interested in the words used within the movie description.

movies_df$Description <- as.character(movies_df$Description)
text <- movies_df %>% select(Description)
tidy_text <- text %>% unnest_tokens(word, Description)
tidy_text %>% count(word, sort = TRUE)

## # A tibble: 1,254 x 2
##    word      n
##    <chr> <int>
##  1 a       163
##  2 the     161
##  3 to       91
##  4 of       89
##  5 in       66
##  6 and      58
##  7 his      31
##  8 with     28
##  9 is       26
## 10 an       25
## # ... with 1,244 more rows

Ok, we see some unwanted stop words… Let’s fix this:

data("stop_words")

tidy_text <- tidy_text %>% anti_join(stop_words)

## Joining, by = "word"

tidy_text %>% count(word, sort = TRUE)

## # A tibble: 1,056 x 2
##    word         n
##    <chr>    <int>
##  1 world       12
##  2 life        10
##  3 american     7
##  4 father       7
##  5 journey      7
##  6 city         6
##  7 save         6
##  8 story        6
##  9 death        5
## 10 home         5
## # ... with 1,046 more rows
…
