…
Meistens sind jedoch nur gezielte Kennzahlen von bestimmten Variablen von Interesse. Der Datensatz Affairs wird deshalb auf folgende 5 Variablen beschränkt.

affairs.short <- affairs %>% select(age, 7:10)
affairs.short

## # A tibble: 601 x 5
##      age religiousness education occupation rating
##    <dbl>         <int>     <int>      <int>  <int>
##  1    37             3        18          7      4
##  2    27             4        14          6      4
##  3    32             1        12          1      4
##  4    57             5        18          6      5
##  5    22             2        17          6      3
##  6    32             2        17          5      5
##  7    22             2        12          1      3
##  8    57             2        14          4      4
##  9    32             4        16          1      2
## 10    22             4        14          4      5
## # ... with 591 more rows
…
