…
Mit W=166 und p<.001 ist der Test signifikant. Die Länder der Regionen “WESTERN EUROPE” und “OCEANIA” unterscheiden sich in ihrem Populationswert.

4 Kruskal-Wallis-test

Der Kruskal-Wallis-Test stellt eine nonparametrische Alternative zur “einfaktoriellen Varianzanalyse” ohne Messwiederholung dar. Es soll hierbei untersucht werden, ob die Länder der Regionen “WESTERN EUROPE”, “OCEANIA” und “NEAR EAST” sich hinsichtlich ihrem Populationswert signifikant voneinander unterscheiden. Es wird erneut der Datensatz countries_of_the_world verwendet.

kruskal <- countries %>% filter(Region == "WESTERN EUROPE" | Region == "OCEANIA" | Region == "NEAR EAST") %>%
  select(Region, Population)
kruskal$Population.num <- as.numeric(kruskal$Population)
kruskal

## # A tibble: 65 x 3
##    Region         Population Population.num
##    <chr>               <int>          <dbl>
##  1 OCEANIA             57794          57794
##  2 WESTERN EUROPE      71201          71201
##  3 OCEANIA          20264082       20264082
##  4 WESTERN EUROPE    8192880        8192880
##  5 NEAR EAST          698585         698585
##  6 WESTERN EUROPE   10379067       10379067
##  7 OCEANIA             21388          21388
##  8 NEAR EAST          784301         784301
##  9 WESTERN EUROPE    5450661        5450661
## 10 WESTERN EUROPE      47246          47246
## # ... with 55 more rows
…
