…
An dieser Stelle sollte erwähnt werden, dass der separate() Befehl einen entscheidenden Nachteil hat. Um diesen zu demonstrieren, werden die Schauspieler der jeweiligen Filme untersucht. Auch diese sind in einer Variablen zusammengefasst worden und werden nun aufgeteilt.

df.sep.actor <- movie %>% separate(Actors, into = c("first", "second", "third", "fourth"), sep = ",") %>% select(first, second, third, fourth)

## Warning: Expected 4 pieces. Missing pieces filled with `NA` in 1 rows
## [623].

df.sep.actor

## # A tibble: 1,000 x 4
##    first            second              third             fourth          
##    <chr>            <chr>               <chr>             <chr>           
##  1 Chris Pratt      " Vin Diesel"       " Bradley Cooper" " Zoe Saldana"  
##  2 Noomi Rapace     " Logan Marshall-G~ " Michael Fassbe~ " Charlize Ther~
##  3 James McAvoy     " Anya Taylor-Joy"  " Haley Lu Richa~ " Jessica Sula" 
##  4 Matthew McConau~ Reese Witherspoon   " Seth MacFarlan~ " Scarlett Joha~
##  5 Will Smith       " Jared Leto"       " Margot Robbie"  " Viola Davis"  
##  6 Matt Damon       " Tian Jing"        " Willem Dafoe"   " Andy Lau"     
##  7 Ryan Gosling     " Emma Stone"       " Rosemarie DeWi~ " J.K. Simmons" 
##  8 Essie Davis      " Andrea Riseborou~ " Julian Barratt" Kenneth Branagh 
##  9 Charlie Hunnam   " Robert Pattinson" " Sienna Miller"  " Tom Holland"  
## 10 Jennifer Lawren~ " Chris Pratt"      " Michael Sheen"  Laurence Fishbu~
## # ... with 990 more rows
…
4 delete() and omit()

Delete

Nicht immer werden alle Spalten oder Zeilen eines Datensatzes benötigt. Sie können daher gezielt gelöscht werden.

Folgendes Beispiel zeigt die Löschung der vierten Spalte (Description) aus dem Datensatz IMDB-Movie-Data.

del <- movie[, -(4)]
del

## # A tibble: 1,000 x 11
##     Rank Title Genre Director Actors  Year `Runtime (Minut~ Rating  Votes
##    <int> <chr> <chr> <chr>    <chr>  <int>            <int>  <dbl>  <int>
##  1     1 Guar~ Acti~ James G~ Chris~  2014              121    8.1 757074
##  2     2 Prom~ Adve~ Ridley ~ Noomi~  2012              124    7   485820
##  3     3 Split Horr~ M. Nigh~ James~  2016              117    7.3 157606
##  4     4 Sing  Anim~ Christo~ Matth~  2016              108    7.2  60545
##  5     5 Suic~ Acti~ David A~ Will ~  2016              123    6.2 393727
##  6     6 The ~ Acti~ Yimou Z~ Matt ~  2016              103    6.1  56036
##  7     7 La L~ Come~ Damien ~ Ryan ~  2016              128    8.3 258682
##  8     8 Mind~ Come~ Sean Fo~ Essie~  2016               89    6.4   2490
##  9     9 The ~ Acti~ James G~ Charl~  2016              141    7.1   7188
## 10    10 Pass~ Adve~ Morten ~ Jenni~  2016              116    7   192177
## # ... with 990 more rows, and 2 more variables: `Revenue
## #   (Millions)` <dbl>, Metascore <int>

Es können auch gezielt die ersten 6 Zeilen entfernt werden, sodass der Datensatz erst bei Rank 7 beginnt.

del2 <- movie[-(1:6), ]
del2

## # A tibble: 994 x 12
##     Rank Title Genre Description Director Actors  Year `Runtime (Minut~
##    <int> <chr> <chr> <chr>       <chr>    <chr>  <int>            <int>
##  1     7 La L~ Come~ A jazz pia~ Damien ~ Ryan ~  2016              128
##  2     8 Mind~ Come~ "A has-bee~ Sean Fo~ Essie~  2016               89
##  3     9 The ~ Acti~ A true-lif~ James G~ Charl~  2016              141
##  4    10 Pass~ Adve~ A spacecra~ Morten ~ Jenni~  2016              116
##  5    11 Fant~ Adve~ The advent~ David Y~ Eddie~  2016              133
##  6    12 Hidd~ Biog~ The story ~ Theodor~ Taraj~  2016              127
##  7    13 Rogu~ Acti~ The Rebel ~ Gareth ~ Felic~  2016              133
##  8    14 Moana Anim~ In Ancient~ Ron Cle~ Auli'~  2016              107
##  9    15 Colo~ Acti~ Gloria is ~ Nacho V~ Anne ~  2016              109
## 10    16 The ~ Anim~ The quiet ~ Chris R~ Louis~  2016               87
## # ... with 984 more rows, and 4 more variables: Rating <dbl>, Votes <int>,
## #   `Revenue (Millions)` <dbl>, Metascore <int>
…
movie[1:3, ]

## # A tibble: 3 x 12
##    Rank Title Genre Description Director Actors  Year `Runtime (Minut~
##   <int> <chr> <chr> <chr>       <chr>    <chr>  <int>            <int>
## 1     1 Guar~ Acti~ A group of~ James G~ Chris~  2014              121
## 2     2 Prom~ Adve~ Following ~ Ridley ~ Noomi~  2012              124
## 3     3 Split Horr~ Three girl~ M. Nigh~ James~  2016              117
## # ... with 4 more variables: Rating <dbl>, Votes <int>, `Revenue
## #   (Millions)` <dbl>, Metascore <int>

movie[, 5]

## # A tibble: 1,000 x 1
##    Director            
##    <chr>               
##  1 James Gunn          
##  2 Ridley Scott        
##  3 M. Night Shyamalan  
##  4 Christophe Lourdelet
##  5 David Ayer          
##  6 Yimou Zhang         
##  7 Damien Chazelle     
##  8 Sean Foley          
##  9 James Gray          
## 10 Morten Tyldum       
## # ... with 990 more rows
…
